<svg xmlns="http://www.w3.org/2000/svg" width="32" height="32" viewBox="0 0 32 32">
  <rect width="32" height="32" fill="#3a3a3a"/>
  <rect width="32" height="1" fill="#e6e6fa" fill-opacity=".1"/>
  <g fill="#e6e6fa">
    <circle cx="16" cy="16" r="12" opacity="0"/>
    <circle cx="16" cy="16" r="2" opacity=".38"/>
  </g>
</svg>
